{
  "minPlayer": {
    "name": "player_min",
    "label": "Min Player Count",
    "options": [
      {
        "label": "any",
        "value": ""
      },
      {
        "label": "1",
        "value": "1"
      },
      {
        "label": "2",
        "value": "2"
      },
      {
        "label": "3",
        "value": "3"
      },
      {
        "label": "4",
        "value": "4"
      },
      {
        "label": "5",
        "value": "5"
      }
    ]
  },
  "maxPlayer": {
    "name": "player_max",
    "label": "Max Player Count",
    "options": [
      {
        "label": "any",
        "value": ""
      },
      {
        "label": "1",
        "value": "1"
      },
      {
        "label": "2",
        "value": "2"
      },
      {
        "label": "3",
        "value": "3"
      },
      {
        "label": "4",
        "value": "4"
      },
      {
        "label": "5",
        "value": "5"
      },
      {
        "label": "6",
        "value": "6"
      },
      {
        "label": "7",
        "value": "7"
      },
      {
        "label": "8",
        "value": "8"
      }
    ]
  },
  "minDuration": {
    "name": "min_duration",
    "label": "Min Duration (minutes)",
    "options": [
      {
        "label": "any",
        "value": ""
      },
      {
        "label": "5",
        "value": "5"
      },
      {
        "label": "20",
        "value": "20"
      },
      {
        "label": "60",
        "value": "60"
      },
      {
        "label": "90",
        "value": "90"
      },
      {
        "label": "120",
        "value": "120"
      }
    ]
  },
  "maxDuration": {
    "name": "max_duration",
    "label": "Max Duration (minutes)",
    "options": [
      {
        "label": "any",
        "value": ""
      },
      {
        "label": "15",
        "value": "15"
      },
      {
        "label": "45",
        "value": "45"
      },
      {
        "label": "90",
        "value": "90"
      },
      {
        "label": "120",
        "value": "120"
      }
    ]
  }
}